{
  "records": [
    {
      "company": "Ala ma kota",
      "category": "VIP",
      "income": 56,
      "id": 3
    },
    {
      "company": "Awesome Corp.",
      "category": "Nowy",
      "income": 23,
      "id": 5
    },
    {
      "company": "New Co.",
      "category": "VIP",
      "income": 12,
      "id": 6
    },
    {
      "company": "Noway",
      "category": "Nowy",
      "income": 32,
      "id": 7
    },
    {
      "category": "VIP",
      "income": 4,
      "extra": "ddwadw",
      "company": "Test2",
      "id": 8
    },
    {
      "category": "VIP",
      "income": 4,
      "extra": "ddwadw",
      "company": "Test4",
      "id": 9
    },
    {
      "category": "VIP",
      "income": 11,
      "extra": "ddwadw",
      "company": "Test4",
      "id": 10
    },
    {
      "company": "Test5 - updated",
      "category": "Nowy",
      "income": 9,
      "id": 11
    }
  ],
  "posts": [],
  "users": []
}